…
```r
power
```

```
## # A tibble: 21 × 4
##    method                  power     n iterations
##    <chr>                   <dbl> <dbl>      <dbl>
##  1 SUR                     0.354    30       1000
##  2 mixed-model interaction 0.34     30       1000
##  3 separate models         0.131    30       1000
##  4 SUR                     0.567    50       1000
##  5 mixed-model interaction 0.556    50       1000
##  6 separate models         0.262    50       1000
##  7 SUR                     0.845   100       1000
##  8 mixed-model interaction 0.845   100       1000
##  9 separate models         0.587   100       1000
## 10 SUR                     0.959   150       1000
## # ℹ 11 more rows
```
…
```r
power_raw
```

```
## # A tibble: 21 × 4
##    method                  power     n iterations
##    <chr>                   <dbl> <dbl>      <dbl>
##  1 SUR                     0.356    30       1000
##  2 mixed-model interaction 0.344    30       1000
##  3 separate models         0.258    30       1000
##  4 SUR                     0.525    50       1000
##  5 mixed-model interaction 0.52     50       1000
##  6 separate models         0.407    50       1000
##  7 SUR                     0.783   100       1000
##  8 mixed-model interaction 0.778   100       1000
##  9 separate models         0.686   100       1000
## 10 SUR                     0.951   150       1000
## # ℹ 11 more rows
```
…
